/*!
  * vue-router v3.5.1
  * (c) 2021 Evan You
  * @license MIT
  */

/*!
 * Vue.js v2.6.12
 * (c) 2014-2020 Evan You
 * Released under the MIT License.
 */

/*! ../../../directives/resize */

/*! ../../../directives/ripple */

/*! ../../../directives/touch */

/*! ../../../mixins/colorable */

/*! ../../../mixins/localable */

/*! ../../../mixins/themeable */

/*! ../../../util/colorUtils */

/*! ../../../util/dateTimeUtils */

/*! ../../../util/helpers */

/*! ../../../util/mergeData */

/*! ../../../util/mixins */

/*! ../../VCheckbox/VSimpleCheckbox */

/*! ../../VIcon */

/*! ../../components/VInput */

/*! ../../components/VItemGroup/VItemGroup */

/*! ../../components/VOverlay */

/*! ../../components/VPicker */

/*! ../../components/VProgressLinear */

/*! ../../directives */

/*! ../../directives/click-outside */

/*! ../../directives/intersect */

/*! ../../directives/resize */

/*! ../../directives/ripple */

/*! ../../directives/scroll */

/*! ../../directives/touch */

/*! ../../locale */

/*! ../../mixins/activatable */

/*! ../../mixins/applicationable */

/*! ../../mixins/binds-attrs */

/*! ../../mixins/bootable */

/*! ../../mixins/button-group */

/*! ../../mixins/colorable */

/*! ../../mixins/comparable */

/*! ../../mixins/delayable */

/*! ../../mixins/dependent */

/*! ../../mixins/detachable */

/*! ../../mixins/elevatable */

/*! ../../mixins/filterable */

/*! ../../mixins/groupable */

/*! ../../mixins/intersectable */

/*! ../../mixins/loadable */

/*! ../../mixins/localable */

/*! ../../mixins/measurable */

/*! ../../mixins/menuable */

/*! ../../mixins/mobile */

/*! ../../mixins/overlayable */

/*! ../../mixins/picker */

/*! ../../mixins/picker-button */

/*! ../../mixins/positionable */

/*! ../../mixins/proxyable */

/*! ../../mixins/registrable */

/*! ../../mixins/returnable */

/*! ../../mixins/rippleable */

/*! ../../mixins/roundable */

/*! ../../mixins/routable */

/*! ../../mixins/scrollable */

/*! ../../mixins/selectable */

/*! ../../mixins/sizeable */

/*! ../../mixins/ssr-bootable */

/*! ../../mixins/stackable */

/*! ../../mixins/themeable */

/*! ../../mixins/toggleable */

/*! ../../mixins/transitionable */

/*! ../../mixins/translatable */

/*! ../../mixins/validatable */

/*! ../../presets/default */

/*! ../../services/goto/easing-patterns */

/*! ../../styles/components/_selection-controls.sass */

/*! ../../styles/main.sass */

/*! ../../util/color/transformCIELAB */

/*! ../../util/color/transformSRGB */

/*! ../../util/colorUtils */

/*! ../../util/colors */

/*! ../../util/console */

/*! ../../util/dateTimeUtils */

/*! ../../util/dedupeModelListeners */

/*! ../../util/dom */

/*! ../../util/helpers */

/*! ../../util/mergeData */

/*! ../../util/mixins */

/*! ../../util/rebuildFunctionalSlots */

/*! ../VAutocomplete */

/*! ../VAutocomplete/VAutocomplete */

/*! ../VAutocomplete/VAutocomplete.sass */

/*! ../VAvatar */

/*! ../VBtn */

/*! ../VBtn/VBtn */

/*! ../VCalendar/util/timestamp */

/*! ../VCard/VCard.sass */

/*! ../VCheckbox/VSimpleCheckbox */

/*! ../VChip */

/*! ../VCounter */

/*! ../VData */

/*! ../VDataIterator */

/*! ../VDatePicker/util */

/*! ../VDatePicker/util/pad */

/*! ../VDatePickerTable.sass */

/*! ../VDialog/VDialog */

/*! ../VDivider */

/*! ../VIcon */

/*! ../VIcon/VIcon */

/*! ../VImg */

/*! ../VImg/VImg */

/*! ../VInput */

/*! ../VItemGroup/VItem */

/*! ../VItemGroup/VItemGroup */

/*! ../VLabel */

/*! ../VList */

/*! ../VMain/VMain */

/*! ../VMenu */

/*! ../VMessages */

/*! ../VProgressCircular */

/*! ../VProgressCircular/VProgressCircular */

/*! ../VProgressLinear */

/*! ../VResponsive */

/*! ../VSelect/VSelect */

/*! ../VSheet */

/*! ../VSheet/VSheet */

/*! ../VSlideGroup/VSlideGroup */

/*! ../VSlider */

/*! ../VSlider/VSlider */

/*! ../VSubheader */

/*! ../VTextField */

/*! ../VTextField/VTextField */

/*! ../VTextField/VTextField.sass */

/*! ../VThemeProvider */

/*! ../VToolbar/VToolbar */

/*! ../VWindow/VWindow */

/*! ../VWindow/VWindowItem */

/*! ../activatable */

/*! ../bootable */

/*! ../colorable */

/*! ../comparable */

/*! ../delayable */

/*! ../framework */

/*! ../modes */

/*! ../positionable */

/*! ../registrable */

/*! ../rippleable */

/*! ../service */

/*! ../stackable */

/*! ../themeable */

/*! ../toggleable */

/*! ../transitions */

/*! ../util */

/*! ../util/events */

/*! ../util/isDateAllowed */

/*! ../util/props */

/*! ../util/timestamp */

/*! ./../../mixins/colorable */

/*! ./../../mixins/toggleable */

/*! ./../../util/helpers */

/*! ./../VItemGroup/VItemGroup */

/*! ./MobileRow */

/*! ./Row */

/*! ./RowGroup */

/*! ./SelectingTimes */

/*! ./VAlert */

/*! ./VAlert.sass */

/*! ./VApp */

/*! ./VApp.sass */

/*! ./VAppBar */

/*! ./VAppBar.sass */

/*! ./VAppBarNavIcon */

/*! ./VAppBarTitle */

/*! ./VAutocomplete */

/*! ./VAutocomplete.sass */

/*! ./VAvatar */

/*! ./VAvatar.sass */

/*! ./VBadge */

/*! ./VBadge.sass */

/*! ./VBanner */

/*! ./VBanner.sass */

/*! ./VBottomNavigation */

/*! ./VBottomNavigation.sass */

/*! ./VBottomSheet */

/*! ./VBottomSheet.sass */

/*! ./VBreadcrumbs */

/*! ./VBreadcrumbs.sass */

/*! ./VBreadcrumbsDivider */

/*! ./VBreadcrumbsItem */

/*! ./VBtn */

/*! ./VBtn.sass */

/*! ./VBtnToggle */

/*! ./VBtnToggle.sass */

/*! ./VCalendar */

/*! ./VCalendarCategory */

/*! ./VCalendarCategory.sass */

/*! ./VCalendarDaily */

/*! ./VCalendarDaily.sass */

/*! ./VCalendarMonthly */

/*! ./VCalendarWeekly */

/*! ./VCalendarWeekly.sass */

/*! ./VCard */

/*! ./VCard.sass */

/*! ./VCarousel */

/*! ./VCarousel.sass */

/*! ./VCarouselItem */

/*! ./VCheckbox */

/*! ./VCheckbox.sass */

/*! ./VChip */

/*! ./VChip.sass */

/*! ./VChipGroup */

/*! ./VChipGroup.sass */

/*! ./VCol */

/*! ./VColorPicker */

/*! ./VColorPicker.sass */

/*! ./VColorPickerCanvas */

/*! ./VColorPickerCanvas.sass */

/*! ./VColorPickerEdit */

/*! ./VColorPickerEdit.sass */

/*! ./VColorPickerPreview */

/*! ./VColorPickerPreview.sass */

/*! ./VColorPickerSwatches */

/*! ./VColorPickerSwatches.sass */

/*! ./VCombobox */

/*! ./VContainer */

/*! ./VContent */

/*! ./VCounter */

/*! ./VCounter.sass */

/*! ./VData */

/*! ./VDataFooter */

/*! ./VDataFooter.sass */

/*! ./VDataIterator */

/*! ./VDataTable */

/*! ./VDataTable.sass */

/*! ./VDataTableHeader */

/*! ./VDataTableHeader.sass */

/*! ./VDataTableHeaderDesktop */

/*! ./VDataTableHeaderMobile */

/*! ./VDatePicker */

/*! ./VDatePickerDateTable */

/*! ./VDatePickerHeader */

/*! ./VDatePickerHeader.sass */

/*! ./VDatePickerMonthTable */

/*! ./VDatePickerTitle */

/*! ./VDatePickerTitle.sass */

/*! ./VDatePickerYears */

/*! ./VDatePickerYears.sass */

/*! ./VDialog */

/*! ./VDialog.sass */

/*! ./VDivider */

/*! ./VDivider.sass */

/*! ./VEditDialog */

/*! ./VEditDialog.sass */

/*! ./VExpansionPanel */

/*! ./VExpansionPanel.sass */

/*! ./VExpansionPanelContent */

/*! ./VExpansionPanelHeader */

/*! ./VExpansionPanels */

/*! ./VFileInput */

/*! ./VFileInput.sass */

/*! ./VFlex */

/*! ./VFooter */

/*! ./VFooter.sass */

/*! ./VForm */

/*! ./VGrid */

/*! ./VGrid.sass */

/*! ./VHover */

/*! ./VIcon */

/*! ./VIcon.sass */

/*! ./VImg */

/*! ./VImg.sass */

/*! ./VInput */

/*! ./VInput.sass */

/*! ./VItem */

/*! ./VItemGroup */

/*! ./VItemGroup.sass */

/*! ./VLabel */

/*! ./VLabel.sass */

/*! ./VLayout */

/*! ./VLazy */

/*! ./VList */

/*! ./VList.sass */

/*! ./VListGroup */

/*! ./VListGroup.sass */

/*! ./VListItem */

/*! ./VListItem.sass */

/*! ./VListItemAction */

/*! ./VListItemAvatar */

/*! ./VListItemGroup */

/*! ./VListItemGroup.sass */

/*! ./VListItemIcon */

/*! ./VMain */

/*! ./VMain.sass */

/*! ./VMenu */

/*! ./VMenu.sass */

/*! ./VMessages */

/*! ./VMessages.sass */

/*! ./VNavigationDrawer */

/*! ./VNavigationDrawer.sass */

/*! ./VOverflowBtn */

/*! ./VOverflowBtn.sass */

/*! ./VOverlay */

/*! ./VOverlay.sass */

/*! ./VPagination */

/*! ./VPagination.sass */

/*! ./VParallax */

/*! ./VParallax.sass */

/*! ./VPicker */

/*! ./VPicker.sass */

/*! ./VProgressCircular */

/*! ./VProgressCircular.sass */

/*! ./VProgressLinear */

/*! ./VProgressLinear.sass */

/*! ./VRadio */

/*! ./VRadio.sass */

/*! ./VRadioGroup */

/*! ./VRadioGroup.sass */

/*! ./VRangeSlider */

/*! ./VRangeSlider.sass */

/*! ./VRating */

/*! ./VRating.sass */

/*! ./VResponsive */

/*! ./VResponsive.sass */

/*! ./VRipple.sass */

/*! ./VRow */

/*! ./VSelect */

/*! ./VSelect.sass */

/*! ./VSelectList */

/*! ./VSheet */

/*! ./VSheet.sass */

/*! ./VSimpleCheckbox */

/*! ./VSimpleCheckbox.sass */

/*! ./VSimpleTable */

/*! ./VSimpleTable.sass */

/*! ./VSkeletonLoader */

/*! ./VSkeletonLoader.sass */

/*! ./VSlideGroup */

/*! ./VSlideGroup.sass */

/*! ./VSlideItem */

/*! ./VSlider */

/*! ./VSlider.sass */

/*! ./VSnackbar */

/*! ./VSnackbar.sass */

/*! ./VSpacer */

/*! ./VSparkline */

/*! ./VSpeedDial */

/*! ./VSpeedDial.sass */

/*! ./VStepper */

/*! ./VStepper.sass */

/*! ./VStepperContent */

/*! ./VStepperStep */

/*! ./VSubheader */

/*! ./VSubheader.sass */

/*! ./VSwitch */

/*! ./VSwitch.sass */

/*! ./VSystemBar */

/*! ./VSystemBar.sass */

/*! ./VTab */

/*! ./VTabItem */

/*! ./VTabs */

/*! ./VTabs.sass */

/*! ./VTabsBar */

/*! ./VTabsItems */

/*! ./VTabsSlider */

/*! ./VTextField */

/*! ./VTextField.sass */

/*! ./VTextarea */

/*! ./VTextarea.sass */

/*! ./VThemeProvider */

/*! ./VTimePicker */

/*! ./VTimePickerClock */

/*! ./VTimePickerClock.sass */

/*! ./VTimePickerTitle */

/*! ./VTimePickerTitle.sass */

/*! ./VTimeline */

/*! ./VTimeline.sass */

/*! ./VTimelineItem */

/*! ./VToolbar */

/*! ./VToolbar.sass */

/*! ./VTooltip */

/*! ./VTooltip.sass */

/*! ./VTreeview */

/*! ./VTreeview.sass */

/*! ./VTreeviewNode */

/*! ./VVirtualScroll */

/*! ./VVirtualScroll.sass */

/*! ./VVirtualTable */

/*! ./VVirtualTable.sass */

/*! ./VWindow */

/*! ./VWindow.sass */

/*! ./VWindowItem */

/*! ./_grid.sass */

/*! ./af */

/*! ./application */

/*! ./ar */

/*! ./az */

/*! ./bg */

/*! ./breakpoint */

/*! ./ca */

/*! ./calendar-base */

/*! ./calendar-with-events.sass */

/*! ./ckb */

/*! ./click-outside */

/*! ./color/transformSRGB */

/*! ./column */

/*! ./common */

/*! ./components */

/*! ./console */

/*! ./createNativeLocaleFormatter */

/*! ./createTransition */

/*! ./cs */

/*! ./de */

/*! ./directives */

/*! ./easing-patterns */

/*! ./el */

/*! ./en */

/*! ./es */

/*! ./et */

/*! ./eventHelpers */

/*! ./expand-transition */

/*! ./fa */

/*! ./fa-svg */

/*! ./fa4 */

/*! ./fi */

/*! ./fr */

/*! ./framework */

/*! ./goto */

/*! ./grid */

/*! ./he */

/*! ./helpers */

/*! ./helpers/core */

/*! ./helpers/path */

/*! ./hr */

/*! ./hu */

/*! ./icons */

/*! ./id */

/*! ./install */

/*! ./intersect */

/*! ./it */

/*! ./ja */

/*! ./ko */

/*! ./lang */

/*! ./lt */

/*! ./lv */

/*! ./math */

/*! ./md */

/*! ./mdi */

/*! ./mdi-svg */

/*! ./mixins/calendar-base */

/*! ./mixins/calendar-with-events */

/*! ./mixins/calendar-with-intervals */

/*! ./mixins/date-picker-table */

/*! ./mixins/header */

/*! ./monthChange */

/*! ./mouse */

/*! ./mutate */

/*! ./nl */

/*! ./no */

/*! ./pad */

/*! ./pl */

/*! ./presets */

/*! ./pt */

/*! ./resize */

/*! ./ripple */

/*! ./ro */

/*! ./ru */

/*! ./sanitizeDateString */

/*! ./scroll */

/*! ./services */

/*! ./sk */

/*! ./sl */

/*! ./sr-Cyrl */

/*! ./sr-Latn */

/*! ./stack */

/*! ./sv */

/*! ./th */

/*! ./theme */

/*! ./times */

/*! ./timestamp */

/*! ./touch */

/*! ./tr */

/*! ./transitions */

/*! ./uk */

/*! ./util */

/*! ./util/console */

/*! ./util/filterTreeItems */

/*! ./util/isDateAllowed */

/*! ./util/parser */

/*! ./util/props */

/*! ./util/timestamp */

/*! ./utils */

/*! ./vi */

/*! ./zh-Hans */

/*! ./zh-Hant */

/*! exports provided: Application */

/*! exports provided: Application, Breakpoint, Goto, Icons, Lang, Presets, Theme */

/*! exports provided: BaseItem, default */

/*! exports provided: BaseItemGroup, default */

/*! exports provided: BaseSlideGroup, default */

/*! exports provided: Breakpoint */

/*! exports provided: CalendarEventOverlapModes */

/*! exports provided: ClickOutside, Intersect, Mutate, Resize, Ripple, Scroll, Touch */

/*! exports provided: ClickOutside, default */

/*! exports provided: Icons */

/*! exports provided: Intersect, default */

/*! exports provided: Lang */

/*! exports provided: Mutate, default */

/*! exports provided: PARSE_REGEX, PARSE_TIME, DAYS_IN_MONTH, DAYS_IN_MONTH_LEAP, DAYS_IN_MONTH_MIN, DAYS_IN_MONTH_MAX, MONTH_MAX, MONTH_MIN, DAY_MIN, DAYS_IN_WEEK, MINUTES_IN_HOUR, MINUTE_MAX, MINUTES_IN_DAY, HOURS_IN_DAY, HOUR_MAX, FIRST_HOUR, OFFSET_YEAR, OFFSET_MONTH, OFFSET_HOUR, OFFSET_TIME, getStartOfWeek, getEndOfWeek, getStartOfMonth, getEndOfMonth, validateTime, parseTime, validateTimestamp, parseTimestamp, parseDate, getDayIdentifier, getTimeIdentifier, getTimestampIdentifier, updateRelative, isTimedless, updateHasTime, updateMinutes, updateWeekday, updateFormatted, getWeekday, daysInMonth, copyTimestamp, padNumber, getDate, getTime, nextMinutes, nextDay, prevDay, relativeDays, diffMinutes, findWeekday, getWeekdaySkips, timestampToDate, createDayList, createIntervalList, createNativeLocaleFormatter */

/*! exports provided: Presets */

/*! exports provided: Resize, default */

/*! exports provided: Ripple, default */

/*! exports provided: Scroll, default */

/*! exports provided: SelectingTimes */

/*! exports provided: SelectingTimes, default */

/*! exports provided: Service */

/*! exports provided: Theme */

/*! exports provided: Touch, default */

/*! exports provided: VAlert, default */

/*! exports provided: VApp, VAppBar, VAppBarNavIcon, VAppBarTitle, VAlert, VAutocomplete, VAvatar, VBadge, VBanner, VBottomNavigation, VBottomSheet, VBreadcrumbs, VBreadcrumbsItem, VBreadcrumbsDivider, VBtn, VBtnToggle, VCalendar, VCalendarCategory, VCalendarDaily, VCalendarWeekly, VCalendarMonthly, VCard, VCardActions, VCardSubtitle, VCardText, VCardTitle, VCarousel, VCarouselItem, VCheckbox, VSimpleCheckbox, VChip, VChipGroup, VColorPicker, VColorPickerSwatches, VColorPickerCanvas, VContent, VCombobox, VCounter, VData, VDataIterator, VDataFooter, VDataTable, VEditDialog, VTableOverflow, VDataTableHeader, VSimpleTable, VVirtualTable, VDatePicker, VDatePickerTitle, VDatePickerHeader, VDatePickerDateTable, VDatePickerMonthTable, VDatePickerYears, VDialog, VDivider, VExpansionPanels, VExpansionPanel, VExpansionPanelHeader, VExpansionPanelContent, VFileInput, VFooter, VForm, VContainer, VCol, VRow, VSpacer, VLayout, VFlex, VHover, VIcon, VImg, VInput, VItem, VItemGroup, VLabel, VLazy, VListItemActionText, VListItemContent, VListItemTitle, VListItemSubtitle, VList, VListGroup, VListItem, VListItemAction, VListItemAvatar, VListItemIcon, VListItemGroup, VMain, VMenu, VMessages, VNavigationDrawer, VOverflowBtn, VOverlay, VPagination, VSheet, VParallax, VPicker, VProgressCircular, VProgressLinear, VRadioGroup, VRadio, VRangeSlider, VRating, VResponsive, VSelect, VSkeletonLoader, VSlider, VSlideGroup, VSlideItem, VSnackbar, VSparkline, VSpeedDial, VStepper, VStepperContent, VStepperStep, VStepperHeader, VStepperItems, VSubheader, VSwitch, VSystemBar, VTabs, VTab, VTabItem, VTabsItems, VTabsSlider, VTextarea, VTextField, VThemeProvider, VTimeline, VTimelineItem, VTimePicker, VTimePickerClock, VTimePickerTitle, VToolbar, VToolbarItems, VToolbarTitle, VTooltip, VTreeview, VTreeviewNode, VVirtualScroll, VWindow, VWindowItem, VCarouselTransition, VCarouselReverseTransition, VTabTransition, VTabReverseTransition, VMenuTransition, VFabTransition, VDialogTransition, VDialogBottomTransition, VDialogTopTransition, VFadeTransition, VScaleTransition, VScrollXTransition, VScrollXReverseTransition, VScrollYTransition, VScrollYReverseTransition, VSlideXTransition, VSlideXReverseTransition, VSlideYTransition, VSlideYReverseTransition, VExpandTransition, VExpandXTransition */

/*! exports provided: VApp, default */

/*! exports provided: VAppBar, VAppBarNavIcon, VAppBarTitle, default */

/*! exports provided: VAutocomplete, default */

/*! exports provided: VAvatar, default */

/*! exports provided: VBadge, default */

/*! exports provided: VBanner, default */

/*! exports provided: VBottomNavigation, default */

/*! exports provided: VBottomSheet, default */

/*! exports provided: VBreadcrumbs, VBreadcrumbsItem, VBreadcrumbsDivider, default */

/*! exports provided: VBtn, default */

/*! exports provided: VBtnToggle, default */

/*! exports provided: VCalendar, VCalendarCategory, VCalendarDaily, VCalendarWeekly, VCalendarMonthly, default */

/*! exports provided: VCard, VCardActions, VCardSubtitle, VCardText, VCardTitle, default */

/*! exports provided: VCarousel, VCarouselItem, default */

/*! exports provided: VCarouselTransition, VCarouselReverseTransition, VTabTransition, VTabReverseTransition, VMenuTransition, VFabTransition, VDialogTransition, VDialogBottomTransition, VDialogTopTransition, VFadeTransition, VScaleTransition, VScrollXTransition, VScrollXReverseTransition, VScrollYTransition, VScrollYReverseTransition, VSlideXTransition, VSlideXReverseTransition, VSlideYTransition, VSlideYReverseTransition, VExpandTransition, VExpandXTransition, default */

/*! exports provided: VCheckbox, VSimpleCheckbox, default */

/*! exports provided: VChip, default */

/*! exports provided: VChipGroup, default */

/*! exports provided: VColorPicker, VColorPickerSwatches, VColorPickerCanvas, default */

/*! exports provided: VCombobox, default */

/*! exports provided: VContainer, VCol, VRow, VSpacer, VLayout, VFlex, default */

/*! exports provided: VContent, default */

/*! exports provided: VCounter, default */

/*! exports provided: VData, default */

/*! exports provided: VDataIterator, VDataFooter, default */

/*! exports provided: VDataTable, VEditDialog, VTableOverflow, VDataTableHeader, VSimpleTable, VVirtualTable, default */

/*! exports provided: VDatePicker, VDatePickerTitle, VDatePickerHeader, VDatePickerDateTable, VDatePickerMonthTable, VDatePickerYears, default */

/*! exports provided: VDialog, default */

/*! exports provided: VDivider, default */

/*! exports provided: VExpansionPanels, VExpansionPanel, VExpansionPanelHeader, VExpansionPanelContent, default */

/*! exports provided: VFileInput, default */

/*! exports provided: VFooter, default */

/*! exports provided: VForm, default */

/*! exports provided: VHover, default */

/*! exports provided: VIcon, default */

/*! exports provided: VImg, default */

/*! exports provided: VInput, default */

/*! exports provided: VItem, VItemGroup, default */

/*! exports provided: VLabel, default */

/*! exports provided: VLazy, default */

/*! exports provided: VListItemActionText, VListItemContent, VListItemTitle, VListItemSubtitle, VList, VListGroup, VListItem, VListItemAction, VListItemAvatar, VListItemIcon, VListItemGroup, default */

/*! exports provided: VMain, default */

/*! exports provided: VMenu, default */

/*! exports provided: VMessages, default */

/*! exports provided: VNavigationDrawer, default */

/*! exports provided: VOverflowBtn, default */

/*! exports provided: VOverlay, default */

/*! exports provided: VPagination, default */

/*! exports provided: VParallax, default */

/*! exports provided: VPicker, default */

/*! exports provided: VProgressCircular, default */

/*! exports provided: VProgressLinear, default */

/*! exports provided: VRadioGroup, VRadio, default */

/*! exports provided: VRangeSlider, default */

/*! exports provided: VRating, default */

/*! exports provided: VResponsive, default */

/*! exports provided: VSelect, default */

/*! exports provided: VSheet, default */

/*! exports provided: VSkeletonLoader, default */

/*! exports provided: VSlideGroup, VSlideItem, default */

/*! exports provided: VSlider, default */

/*! exports provided: VSnackbar, default */

/*! exports provided: VSparkline, default */

/*! exports provided: VSpeedDial, default */

/*! exports provided: VStepper, VStepperContent, VStepperStep, VStepperHeader, VStepperItems, default */

/*! exports provided: VSubheader, default */

/*! exports provided: VSwitch, default */

/*! exports provided: VSystemBar, default */

/*! exports provided: VTabs, VTab, VTabItem, VTabsItems, VTabsSlider, default */

/*! exports provided: VTextField, default */

/*! exports provided: VTextarea, default */

/*! exports provided: VThemeProvider, default */

/*! exports provided: VTimePicker, VTimePickerClock, VTimePickerTitle, default */

/*! exports provided: VTimeline, VTimelineItem, default */

/*! exports provided: VToolbar, VToolbarItems, VToolbarTitle, default */

/*! exports provided: VTooltip, default */

/*! exports provided: VTreeview, VTreeviewNode, default */

/*! exports provided: VTreeviewNodeProps, default */

/*! exports provided: VVirtualScroll, default */

/*! exports provided: VWindow, VWindowItem, default */

/*! exports provided: af, ar, bg, ca, ckb, cs, de, el, en, es, et, fa, fi, fr, hr, hu, he, id, it, ja, ko, lv, lt, nl, no, pl, pt, ro, ru, sk, sl, srCyrl, srLatn, sv, th, tr, az, uk, vi, zhHans, zhHant */

/*! exports provided: attachedRoot */

/*! exports provided: checkCollinear, getDistance, moveTo */

/*! exports provided: column */

/*! exports provided: consoleInfo, consoleWarn, consoleError, deprecate, breaking, removed */

/*! exports provided: convertToComponentDeclarations, default */

/*! exports provided: createItemTypeListeners, createItemTypeNativeListeners, createNativeLocaleFormatter, monthChange, sanitizeDateString, pad */

/*! exports provided: createItemTypeNativeListeners, createItemTypeListeners */

/*! exports provided: createSimpleFunctional, directiveConfig, addOnceEventListener, passiveSupported, addPassiveEventListener, getNestedValue, deepEqual, getObjectValueByPath, getPropertyFromItem, createRange, getZIndex, escapeHTML, filterObjectOnKeys, convertToUnit, kebabCase, isObject, keyCodes, remapInternalIcon, keys, camelize, arrayDiff, upperFirst, groupItems, wrapInArray, sortItems, defaultFilter, searchItems, getSlotType, debounce, throttle, getPrefixedScopedSlots, getSlot, clamp, padEnd, chunk, humanReadableFileSize, camelizeObjectKeys, mergeDeep, fillArray */

/*! exports provided: createSimpleTransition, createJavascriptTransition */

/*! exports provided: default */

/*! exports provided: default, Goto */

/*! exports provided: default, functionalThemeClasses */

/*! exports provided: default, mergeStyles, mergeClasses, mergeListeners */

/*! exports provided: default, validateNumber, validateWeekdays */

/*! exports provided: defaultMenuProps, default */

/*! exports provided: factory, default */

/*! exports provided: filterTreeItem, filterTreeItems */

/*! exports provided: fromHSVA, fromHSLA, fromRGBA, fromHexa, fromHex, parseColor, extractColor, hasAlpha */

/*! exports provided: fromXYZ, toXYZ */

/*! exports provided: genPath */

/*! exports provided: genPoints, genBars */

/*! exports provided: getOffset, getContainer */

/*! exports provided: getVisuals, hasOverlap, setColumnCount, getRange, getDayRange, getNormalizedRange, getOpenGroup, getOverlapGroupHandler */

/*! exports provided: inject, provide */

/*! exports provided: install */

/*! exports provided: isCssColor, colorToInt, classToHex, intToHex, colorToHex, HSVAtoRGBA, RGBAtoHSVA, HSVAtoHSLA, HSLAtoHSVA, RGBAtoCSS, RGBtoCSS, RGBAtoHex, HexToRGBA, HexToHSVA, HSVAtoHex, parseHex, parseGradient, RGBtoInt, contrastRatio */

/*! exports provided: linear, easeInQuad, easeOutQuad, easeInOutQuad, easeInCubic, easeOutCubic, easeInOutCubic, easeInQuart, easeOutQuart, easeInOutQuart, easeInQuint, easeOutQuint, easeInOutQuint */

/*! exports provided: modes, default */

/*! exports provided: parse, genStyles, genVariations, lighten, darken */

/*! exports provided: parseEvent, isEventOn, isEventStart, isEventOverlapping */

/*! exports provided: parsedCategoryText, getParsedCategories */

/*! exports provided: preset */

/*! exports provided: prevent, default */

/*! exports provided: stack */

/*! exports provided: weekNumber, isLeapYear */

/*! no static exports found */

/*! vue */

/*!**********************!*\
  !*** ./src/index.ts ***!
  \**********************/

/*!************************!*\
  !*** ./src/install.ts ***!
  \************************/

/*!*************************!*\
  !*** ./src/util/dom.ts ***!
  \*************************/

/*!**************************!*\
  !*** ./src/framework.ts ***!
  \**************************/

/*!**************************!*\
  !*** ./src/locale/af.ts ***!
  \**************************/

/*!**************************!*\
  !*** ./src/locale/ar.ts ***!
  \**************************/

/*!**************************!*\
  !*** ./src/locale/az.ts ***!
  \**************************/

/*!**************************!*\
  !*** ./src/locale/bg.ts ***!
  \**************************/

/*!**************************!*\
  !*** ./src/locale/ca.ts ***!
  \**************************/

/*!**************************!*\
  !*** ./src/locale/cs.ts ***!
  \**************************/

/*!**************************!*\
  !*** ./src/locale/de.ts ***!
  \**************************/

/*!**************************!*\
  !*** ./src/locale/el.ts ***!
  \**************************/

/*!**************************!*\
  !*** ./src/locale/en.ts ***!
  \**************************/

/*!**************************!*\
  !*** ./src/locale/es.ts ***!
  \**************************/

/*!**************************!*\
  !*** ./src/locale/et.ts ***!
  \**************************/

/*!**************************!*\
  !*** ./src/locale/fa.ts ***!
  \**************************/

/*!**************************!*\
  !*** ./src/locale/fi.ts ***!
  \**************************/

/*!**************************!*\
  !*** ./src/locale/fr.ts ***!
  \**************************/

/*!**************************!*\
  !*** ./src/locale/he.ts ***!
  \**************************/

/*!**************************!*\
  !*** ./src/locale/hr.ts ***!
  \**************************/

/*!**************************!*\
  !*** ./src/locale/hu.ts ***!
  \**************************/

/*!**************************!*\
  !*** ./src/locale/id.ts ***!
  \**************************/

/*!**************************!*\
  !*** ./src/locale/it.ts ***!
  \**************************/

/*!**************************!*\
  !*** ./src/locale/ja.ts ***!
  \**************************/

/*!**************************!*\
  !*** ./src/locale/ko.ts ***!
  \**************************/

/*!**************************!*\
  !*** ./src/locale/lt.ts ***!
  \**************************/

/*!**************************!*\
  !*** ./src/locale/lv.ts ***!
  \**************************/

/*!**************************!*\
  !*** ./src/locale/nl.ts ***!
  \**************************/

/*!**************************!*\
  !*** ./src/locale/no.ts ***!
  \**************************/

/*!**************************!*\
  !*** ./src/locale/pl.ts ***!
  \**************************/

/*!**************************!*\
  !*** ./src/locale/pt.ts ***!
  \**************************/

/*!**************************!*\
  !*** ./src/locale/ro.ts ***!
  \**************************/

/*!**************************!*\
  !*** ./src/locale/ru.ts ***!
  \**************************/

/*!**************************!*\
  !*** ./src/locale/sk.ts ***!
  \**************************/

/*!**************************!*\
  !*** ./src/locale/sl.ts ***!
  \**************************/

/*!**************************!*\
  !*** ./src/locale/sv.ts ***!
  \**************************/

/*!**************************!*\
  !*** ./src/locale/th.ts ***!
  \**************************/

/*!**************************!*\
  !*** ./src/locale/tr.ts ***!
  \**************************/

/*!**************************!*\
  !*** ./src/locale/uk.ts ***!
  \**************************/

/*!**************************!*\
  !*** ./src/locale/vi.ts ***!
  \**************************/

/*!***************************!*\
  !*** ./src/locale/ckb.ts ***!
  \***************************/

/*!****************************!*\
  !*** ./src/util/colors.ts ***!
  \****************************/

/*!****************************!*\
  !*** ./src/util/mixins.ts ***!
  \****************************/

/*!*****************************!*\
  !*** ./src/locale/index.ts ***!
  \*****************************/

/*!*****************************!*\
  !*** ./src/util/console.ts ***!
  \*****************************/

/*!*****************************!*\
  !*** ./src/util/helpers.ts ***!
  \*****************************/

/*!******************************!*\
  !*** ./src/styles/main.sass ***!
  \******************************/

/*!*******************************!*\
  !*** ./src/locale/sr-Cyrl.ts ***!
  \*******************************/

/*!*******************************!*\
  !*** ./src/locale/sr-Latn.ts ***!
  \*******************************/

/*!*******************************!*\
  !*** ./src/locale/zh-Hans.ts ***!
  \*******************************/

/*!*******************************!*\
  !*** ./src/locale/zh-Hant.ts ***!
  \*******************************/

/*!*******************************!*\
  !*** ./src/services/index.ts ***!
  \*******************************/

/*!*******************************!*\
  !*** ./src/util/mergeData.ts ***!
  \*******************************/

/*!********************************!*\
  !*** ./src/util/colorUtils.ts ***!
  \********************************/

/*!*********************************!*\
  !*** ./src/components/index.ts ***!
  \*********************************/

/*!*********************************!*\
  !*** ./src/directives/index.ts ***!
  \*********************************/

/*!***********************************!*\
  !*** ./src/services/goto/util.ts ***!
  \***********************************/

/*!***********************************!*\
  !*** ./src/util/dateTimeUtils.ts ***!
  \***********************************/

/*!************************************!*\
  !*** ./src/mixins/mobile/index.ts ***!
  \************************************/

/*!************************************!*\
  !*** ./src/mixins/picker/index.ts ***!
  \************************************/

/*!************************************!*\
  !*** ./src/services/goto/index.ts ***!
  \************************************/

/*!************************************!*\
  !*** ./src/services/lang/index.ts ***!
  \************************************/

/*!*************************************!*\
  !*** ./src/components/VApp/VApp.ts ***!
  \*************************************/

/*!*************************************!*\
  !*** ./src/components/VBtn/VBtn.ts ***!
  \*************************************/

/*!*************************************!*\
  !*** ./src/components/VImg/VImg.ts ***!
  \*************************************/

/*!*************************************!*\
  !*** ./src/services/icons/index.ts ***!
  \*************************************/

/*!*************************************!*\
  !*** ./src/services/theme/index.ts ***!
  \*************************************/

/*!*************************************!*\
  !*** ./src/services/theme/utils.ts ***!
  \*************************************/

/*!**************************************!*\
  !*** ./src/components/VApp/index.ts ***!
  \**************************************/

/*!**************************************!*\
  !*** ./src/components/VBtn/index.ts ***!
  \**************************************/

/*!**************************************!*\
  !*** ./src/components/VGrid/VCol.ts ***!
  \**************************************/

/*!**************************************!*\
  !*** ./src/components/VGrid/VRow.ts ***!
  \**************************************/

/*!**************************************!*\
  !*** ./src/components/VGrid/grid.ts ***!
  \**************************************/

/*!**************************************!*\
  !*** ./src/components/VImg/index.ts ***!
  \**************************************/

/*!**************************************!*\
  !*** ./src/components/VTabs/VTab.ts ***!
  \**************************************/

/*!**************************************!*\
  !*** ./src/mixins/bootable/index.ts ***!
  \**************************************/

/*!**************************************!*\
  !*** ./src/mixins/loadable/index.ts ***!
  \**************************************/

/*!**************************************!*\
  !*** ./src/mixins/menuable/index.ts ***!
  \**************************************/

/*!**************************************!*\
  !*** ./src/mixins/routable/index.ts ***!
  \**************************************/

/*!**************************************!*\
  !*** ./src/mixins/sizeable/index.ts ***!
  \**************************************/

/*!**************************************!*\
  !*** ./src/presets/default/index.ts ***!
  \**************************************/

/*!***************************************!*\
  !*** ./src/components/VApp/VApp.sass ***!
  \***************************************/

/*!***************************************!*\
  !*** ./src/components/VBtn/VBtn.sass ***!
  \***************************************/

/*!***************************************!*\
  !*** ./src/components/VCard/VCard.ts ***!
  \***************************************/

/*!***************************************!*\
  !*** ./src/components/VCard/index.ts ***!
  \***************************************/

/*!***************************************!*\
  !*** ./src/components/VChip/VChip.ts ***!
  \***************************************/

/*!***************************************!*\
  !*** ./src/components/VChip/index.ts ***!
  \***************************************/

/*!***************************************!*\
  !*** ./src/components/VData/VData.ts ***!
  \***************************************/

/*!***************************************!*\
  !*** ./src/components/VData/index.ts ***!
  \***************************************/

/*!***************************************!*\
  !*** ./src/components/VForm/VForm.ts ***!
  \***************************************/

/*!***************************************!*\
  !*** ./src/components/VForm/index.ts ***!
  \***************************************/

/*!***************************************!*\
  !*** ./src/components/VGrid/VFlex.ts ***!
  \***************************************/

/*!***************************************!*\
  !*** ./src/components/VGrid/index.ts ***!
  \***************************************/

/*!***************************************!*\
  !*** ./src/components/VIcon/VIcon.ts ***!
  \***************************************/

/*!***************************************!*\
  !*** ./src/components/VIcon/index.ts ***!
  \***************************************/

/*!***************************************!*\
  !*** ./src/components/VImg/VImg.sass ***!
  \***************************************/

/*!***************************************!*\
  !*** ./src/components/VLazy/VLazy.ts ***!
  \***************************************/

/*!***************************************!*\
  !*** ./src/components/VLazy/index.ts ***!
  \***************************************/

/*!***************************************!*\
  !*** ./src/components/VList/VList.ts ***!
  \***************************************/

/*!***************************************!*\
  !*** ./src/components/VList/index.ts ***!
  \***************************************/

/*!***************************************!*\
  !*** ./src/components/VMain/VMain.ts ***!
  \***************************************/

/*!***************************************!*\
  !*** ./src/components/VMain/index.ts ***!
  \***************************************/

/*!***************************************!*\
  !*** ./src/components/VMenu/VMenu.ts ***!
  \***************************************/

/*!***************************************!*\
  !*** ./src/components/VMenu/index.ts ***!
  \***************************************/

/*!***************************************!*\
  !*** ./src/components/VTabs/VTabs.ts ***!
  \***************************************/

/*!***************************************!*\
  !*** ./src/components/VTabs/index.ts ***!
  \***************************************/

/*!***************************************!*\
  !*** ./src/directives/touch/index.ts ***!
  \***************************************/

/*!***************************************!*\
  !*** ./src/mixins/colorable/index.ts ***!
  \***************************************/

/*!***************************************!*\
  !*** ./src/mixins/delayable/index.ts ***!
  \***************************************/

/*!***************************************!*\
  !*** ./src/mixins/dependent/index.ts ***!
  \***************************************/

/*!***************************************!*\
  !*** ./src/mixins/groupable/index.ts ***!
  \***************************************/

/*!***************************************!*\
  !*** ./src/mixins/localable/index.ts ***!
  \***************************************/

/*!***************************************!*\
  !*** ./src/mixins/proxyable/index.ts ***!
  \***************************************/

/*!***************************************!*\
  !*** ./src/mixins/roundable/index.ts ***!
  \***************************************/

/*!***************************************!*\
  !*** ./src/mixins/stackable/index.ts ***!
  \***************************************/

/*!***************************************!*\
  !*** ./src/mixins/themeable/index.ts ***!
  \***************************************/

/*!***************************************!*\
  !*** ./src/services/presets/index.ts ***!
  \***************************************/

/*!***************************************!*\
  !*** ./src/services/service/index.ts ***!
  \***************************************/

/*!****************************************!*\
  !*** ./src/components/VAlert/index.ts ***!
  \****************************************/

/*!****************************************!*\
  !*** ./src/components/VBadge/index.ts ***!
  \****************************************/

/*!****************************************!*\
  !*** ./src/components/VHover/index.ts ***!
  \****************************************/

/*!****************************************!*\
  !*** ./src/components/VInput/index.ts ***!
  \****************************************/

/*!****************************************!*\
  !*** ./src/components/VLabel/index.ts ***!
  \****************************************/

/*!****************************************!*\
  !*** ./src/components/VSheet/index.ts ***!
  \****************************************/

/*!****************************************!*\
  !*** ./src/directives/mutate/index.ts ***!
  \****************************************/

/*!****************************************!*\
  !*** ./src/directives/resize/index.ts ***!
  \****************************************/

/*!****************************************!*\
  !*** ./src/directives/ripple/index.ts ***!
  \****************************************/

/*!****************************************!*\
  !*** ./src/directives/scroll/index.ts ***!
  \****************************************/

/*!****************************************!*\
  !*** ./src/mixins/comparable/index.ts ***!
  \****************************************/

/*!****************************************!*\
  !*** ./src/mixins/detachable/index.ts ***!
  \****************************************/

/*!****************************************!*\
  !*** ./src/mixins/elevatable/index.ts ***!
  \****************************************/

/*!****************************************!*\
  !*** ./src/mixins/filterable/index.ts ***!
  \****************************************/

/*!****************************************!*\
  !*** ./src/mixins/measurable/index.ts ***!
  \****************************************/

/*!****************************************!*\
  !*** ./src/mixins/returnable/index.ts ***!
  \****************************************/

/*!****************************************!*\
  !*** ./src/mixins/rippleable/index.ts ***!
  \****************************************/

/*!****************************************!*\
  !*** ./src/mixins/scrollable/index.ts ***!
  \****************************************/

/*!****************************************!*\
  !*** ./src/mixins/selectable/index.ts ***!
  \****************************************/

/*!****************************************!*\
  !*** ./src/mixins/toggleable/index.ts ***!
  \****************************************/

/*!*****************************************!*\
  !*** ./src/components/VAlert/VAlert.ts ***!
  \*****************************************/

/*!*****************************************!*\
  !*** ./src/components/VAppBar/index.ts ***!
  \*****************************************/

/*!*****************************************!*\
  !*** ./src/components/VAvatar/index.ts ***!
  \*****************************************/

/*!*****************************************!*\
  !*** ./src/components/VBadge/VBadge.ts ***!
  \*****************************************/

/*!*****************************************!*\
  !*** ./src/components/VBanner/index.ts ***!
  \*****************************************/

/*!*****************************************!*\
  !*** ./src/components/VCard/VCard.sass ***!
  \*****************************************/

/*!*****************************************!*\
  !*** ./src/components/VChip/VChip.sass ***!
  \*****************************************/

/*!*****************************************!*\
  !*** ./src/components/VDialog/index.ts ***!
  \*****************************************/

/*!*****************************************!*\
  !*** ./src/components/VFooter/index.ts ***!
  \*****************************************/

/*!*****************************************!*\
  !*** ./src/components/VGrid/VGrid.sass ***!
  \*****************************************/

/*!*****************************************!*\
  !*** ./src/components/VGrid/VLayout.ts ***!
  \*****************************************/

/*!*****************************************!*\
  !*** ./src/components/VGrid/VSpacer.ts ***!
  \*****************************************/

/*!*****************************************!*\
  !*** ./src/components/VGrid/_grid.sass ***!
  \*****************************************/

/*!*****************************************!*\
  !*** ./src/components/VHover/VHover.ts ***!
  \*****************************************/

/*!*****************************************!*\
  !*** ./src/components/VIcon/VIcon.sass ***!
  \*****************************************/

/*!*****************************************!*\
  !*** ./src/components/VInput/VInput.ts ***!
  \*****************************************/

/*!*****************************************!*\
  !*** ./src/components/VLabel/VLabel.ts ***!
  \*****************************************/

/*!*****************************************!*\
  !*** ./src/components/VList/VList.sass ***!
  \*****************************************/

/*!*****************************************!*\
  !*** ./src/components/VMain/VMain.sass ***!
  \*****************************************/

/*!*****************************************!*\
  !*** ./src/components/VMenu/VMenu.sass ***!
  \*****************************************/

/*!*****************************************!*\
  !*** ./src/components/VPicker/index.ts ***!
  \*****************************************/

/*!*****************************************!*\
  !*** ./src/components/VRating/index.ts ***!
  \*****************************************/

/*!*****************************************!*\
  !*** ./src/components/VSelect/index.ts ***!
  \*****************************************/

/*!*****************************************!*\
  !*** ./src/components/VSheet/VSheet.ts ***!
  \*****************************************/

/*!*****************************************!*\
  !*** ./src/components/VSlider/index.ts ***!
  \*****************************************/

/*!*****************************************!*\
  !*** ./src/components/VSwitch/index.ts ***!
  \*****************************************/

/*!*****************************************!*\
  !*** ./src/components/VTabs/VTabs.sass ***!
  \*****************************************/

/*!*****************************************!*\
  !*** ./src/components/VWindow/index.ts ***!
  \*****************************************/

/*!*****************************************!*\
  !*** ./src/mixins/activatable/index.ts ***!
  \*****************************************/

/*!*****************************************!*\
  !*** ./src/mixins/binds-attrs/index.ts ***!
  \*****************************************/

/*!*****************************************!*\
  !*** ./src/mixins/overlayable/index.ts ***!
  \*****************************************/

/*!*****************************************!*\
  !*** ./src/mixins/registrable/index.ts ***!
  \*****************************************/

/*!*****************************************!*\
  !*** ./src/mixins/validatable/index.ts ***!
  \*****************************************/

/*!*****************************************!*\
  !*** ./src/util/color/transformSRGB.ts ***!
  \*****************************************/

/*!******************************************!*\
  !*** ./src/components/VContent/index.ts ***!
  \******************************************/

/*!******************************************!*\
  !*** ./src/components/VCounter/index.ts ***!
  \******************************************/

/*!******************************************!*\
  !*** ./src/components/VDataTable/Row.ts ***!
  \******************************************/

/*!******************************************!*\
  !*** ./src/components/VDivider/index.ts ***!
  \******************************************/

/*!******************************************!*\
  !*** ./src/components/VOverlay/index.ts ***!
  \******************************************/

/*!******************************************!*\
  !*** ./src/components/VStepper/index.ts ***!
  \******************************************/

/*!******************************************!*\
  !*** ./src/components/VTabs/VTabItem.ts ***!
  \******************************************/

/*!******************************************!*\
  !*** ./src/components/VTabs/VTabsBar.ts ***!
  \******************************************/

/*!******************************************!*\
  !*** ./src/components/VToolbar/index.ts ***!
  \******************************************/

/*!******************************************!*\
  !*** ./src/components/VTooltip/index.ts ***!
  \******************************************/

/*!******************************************!*\
  !*** ./src/mixins/button-group/index.ts ***!
  \******************************************/

/*!******************************************!*\
  !*** ./src/mixins/positionable/index.ts ***!
  \******************************************/

/*!******************************************!*\
  !*** ./src/mixins/ssr-bootable/index.ts ***!
  \******************************************/

/*!******************************************!*\
  !*** ./src/mixins/translatable/index.ts ***!
  \******************************************/

/*!******************************************!*\
  !*** ./src/services/breakpoint/index.ts ***!
  \******************************************/

/*!******************************************!*\
  !*** ./src/services/icons/presets/fa.ts ***!
  \******************************************/

/*!******************************************!*\
  !*** ./src/services/icons/presets/md.ts ***!
  \******************************************/

/*!******************************************!*\
  !*** ./src/util/dedupeModelListeners.ts ***!
  \******************************************/

/*!*******************************************!*\
  !*** ./src/components/VAlert/VAlert.sass ***!
  \*******************************************/

/*!*******************************************!*\
  !*** ./src/components/VAppBar/VAppBar.ts ***!
  \*******************************************/

/*!*******************************************!*\
  !*** ./src/components/VAvatar/VAvatar.ts ***!
  \*******************************************/

/*!*******************************************!*\
  !*** ./src/components/VBadge/VBadge.sass ***!
  \*******************************************/

/*!*******************************************!*\
  !*** ./src/components/VBanner/VBanner.ts ***!
  \*******************************************/

/*!*******************************************!*\
  !*** ./src/components/VCalendar/index.ts ***!
  \*******************************************/

/*!*******************************************!*\
  !*** ./src/components/VCarousel/index.ts ***!
  \*******************************************/

/*!*******************************************!*\
  !*** ./src/components/VCheckbox/index.ts ***!
  \*******************************************/

/*!*******************************************!*\
  !*** ./src/components/VCombobox/index.ts ***!
  \*******************************************/

/*!*******************************************!*\
  !*** ./src/components/VDialog/VDialog.ts ***!
  \*******************************************/

/*!*******************************************!*\
  !*** ./src/components/VFooter/VFooter.ts ***!
  \*******************************************/

/*!*******************************************!*\
  !*** ./src/components/VInput/VInput.sass ***!
  \*******************************************/

/*!*******************************************!*\
  !*** ./src/components/VLabel/VLabel.sass ***!
  \*******************************************/

/*!*******************************************!*\
  !*** ./src/components/VList/VListItem.ts ***!
  \*******************************************/

/*!*******************************************!*\
  !*** ./src/components/VMessages/index.ts ***!
  \*******************************************/

/*!*******************************************!*\
  !*** ./src/components/VParallax/index.ts ***!
  \*******************************************/

/*!*******************************************!*\
  !*** ./src/components/VPicker/VPicker.ts ***!
  \*******************************************/

/*!*******************************************!*\
  !*** ./src/components/VRating/VRating.ts ***!
  \*******************************************/

/*!*******************************************!*\
  !*** ./src/components/VSelect/VSelect.ts ***!
  \*******************************************/

/*!*******************************************!*\
  !*** ./src/components/VSheet/VSheet.sass ***!
  \*******************************************/

/*!*******************************************!*\
  !*** ./src/components/VSlider/VSlider.ts ***!
  \*******************************************/

/*!*******************************************!*\
  !*** ./src/components/VSnackbar/index.ts ***!
  \*******************************************/

/*!*******************************************!*\
  !*** ./src/components/VSwitch/VSwitch.ts ***!
  \*******************************************/

/*!*******************************************!*\
  !*** ./src/components/VTextarea/index.ts ***!
  \*******************************************/

/*!*******************************************!*\
  !*** ./src/components/VTimeline/index.ts ***!
  \*******************************************/

/*!*******************************************!*\
  !*** ./src/components/VTreeview/index.ts ***!
  \*******************************************/

/*!*******************************************!*\
  !*** ./src/components/VWindow/VWindow.ts ***!
  \*******************************************/

/*!*******************************************!*\
  !*** ./src/directives/intersect/index.ts ***!
  \*******************************************/

/*!*******************************************!*\
  !*** ./src/mixins/intersectable/index.ts ***!
  \*******************************************/

/*!*******************************************!*\
  !*** ./src/mixins/picker-button/index.ts ***!
  \*******************************************/

/*!*******************************************!*\
  !*** ./src/services/application/index.ts ***!
  \*******************************************/

/*!*******************************************!*\
  !*** ./src/services/icons/presets/fa4.ts ***!
  \*******************************************/

/*!*******************************************!*\
  !*** ./src/services/icons/presets/mdi.ts ***!
  \*******************************************/

/*!*******************************************!*\
  !*** ./src/util/color/transformCIELAB.ts ***!
  \*******************************************/

/*!********************************************!*\
  !*** ./src/components/VBtnToggle/index.ts ***!
  \********************************************/

/*!********************************************!*\
  !*** ./src/components/VChipGroup/index.ts ***!
  \********************************************/

/*!********************************************!*\
  !*** ./src/components/VDataTable/index.ts ***!
  \********************************************/

/*!********************************************!*\
  !*** ./src/components/VFileInput/index.ts ***!
  \********************************************/

/*!********************************************!*\
  !*** ./src/components/VGrid/VContainer.ts ***!
  \********************************************/

/*!********************************************!*\
  !*** ./src/components/VItemGroup/VItem.ts ***!
  \********************************************/

/*!********************************************!*\
  !*** ./src/components/VItemGroup/index.ts ***!
  \********************************************/

/*!********************************************!*\
  !*** ./src/components/VList/VListGroup.ts ***!
  \********************************************/

/*!********************************************!*\
  !*** ./src/components/VSparkline/index.ts ***!
  \********************************************/

/*!********************************************!*\
  !*** ./src/components/VSpeedDial/index.ts ***!
  \********************************************/

/*!********************************************!*\
  !*** ./src/components/VSubheader/index.ts ***!
  \********************************************/

/*!********************************************!*\
  !*** ./src/components/VSystemBar/index.ts ***!
  \********************************************/

/*!********************************************!*\
  !*** ./src/components/VTabs/VTabsItems.ts ***!
  \********************************************/

/*!********************************************!*\
  !*** ./src/components/VTextField/index.ts ***!
  \********************************************/

/*!********************************************!*\
  !*** ./src/directives/ripple/VRipple.sass ***!
  \********************************************/

/*!********************************************!*\
  !*** ./src/mixins/transitionable/index.ts ***!
  \********************************************/

/*!********************************************!*\
  !*** ./src/util/rebuildFunctionalSlots.ts ***!
  \********************************************/

/*!*********************************************!*\
  !*** ./src/components/VAppBar/VAppBar.sass ***!
  \*********************************************/

/*!*********************************************!*\
  !*** ./src/components/VAvatar/VAvatar.sass ***!
  \*********************************************/

/*!*********************************************!*\
  !*** ./src/components/VBanner/VBanner.sass ***!
  \*********************************************/

/*!*********************************************!*\
  !*** ./src/components/VContent/VContent.ts ***!
  \*********************************************/

/*!*********************************************!*\
  !*** ./src/components/VCounter/VCounter.ts ***!
  \*********************************************/

/*!*********************************************!*\
  !*** ./src/components/VDatePicker/index.ts ***!
  \*********************************************/

/*!*********************************************!*\
  !*** ./src/components/VDialog/VDialog.sass ***!
  \*********************************************/

/*!*********************************************!*\
  !*** ./src/components/VDivider/VDivider.ts ***!
  \*********************************************/

/*!*********************************************!*\
  !*** ./src/components/VFooter/VFooter.sass ***!
  \*********************************************/

/*!*********************************************!*\
  !*** ./src/components/VList/VListItem.sass ***!
  \*********************************************/

/*!*********************************************!*\
  !*** ./src/components/VOverlay/VOverlay.ts ***!
  \*********************************************/

/*!*********************************************!*\
  !*** ./src/components/VPagination/index.ts ***!
  \*********************************************/

/*!*********************************************!*\
  !*** ./src/components/VPicker/VPicker.sass ***!
  \*********************************************/

/*!*********************************************!*\
  !*** ./src/components/VRadioGroup/index.ts ***!
  \*********************************************/

/*!*********************************************!*\
  !*** ./src/components/VRating/VRating.sass ***!
  \*********************************************/

/*!*********************************************!*\
  !*** ./src/components/VResponsive/index.ts ***!
  \*********************************************/

/*!*********************************************!*\
  !*** ./src/components/VSelect/VSelect.sass ***!
  \*********************************************/

/*!*********************************************!*\
  !*** ./src/components/VSlideGroup/index.ts ***!
  \*********************************************/

/*!*********************************************!*\
  !*** ./src/components/VSlider/VSlider.sass ***!
  \*********************************************/

/*!*********************************************!*\
  !*** ./src/components/VStepper/VStepper.ts ***!
  \*********************************************/

/*!*********************************************!*\
  !*** ./src/components/VSwitch/VSwitch.sass ***!
  \*********************************************/

/*!*********************************************!*\
  !*** ./src/components/VTabs/VTabsSlider.ts ***!
  \*********************************************/

/*!*********************************************!*\
  !*** ./src/components/VTimePicker/index.ts ***!
  \*********************************************/

/*!*********************************************!*\
  !*** ./src/components/VToolbar/VToolbar.ts ***!
  \*********************************************/

/*!*********************************************!*\
  !*** ./src/components/VTooltip/VTooltip.ts ***!
  \*********************************************/

/*!*********************************************!*\
  !*** ./src/components/VWindow/VWindow.sass ***!
  \*********************************************/

/*!*********************************************!*\
  !*** ./src/components/transitions/index.ts ***!
  \*********************************************/

/*!*********************************************!*\
  !*** ./src/mixins/applicationable/index.ts ***!
  \*********************************************/

/*!*********************************************!*\
  !*** ./src/services/icons/presets/index.ts ***!
  \*********************************************/

/*!**********************************************!*\
  !*** ./src/components/VBottomSheet/index.ts ***!
  \**********************************************/

/*!**********************************************!*\
  !*** ./src/components/VBreadcrumbs/index.ts ***!
  \**********************************************/

/*!**********************************************!*\
  !*** ./src/components/VColorPicker/index.ts ***!
  \**********************************************/

/*!**********************************************!*\
  !*** ./src/components/VList/VListGroup.sass ***!
  \**********************************************/

/*!**********************************************!*\
  !*** ./src/components/VOverflowBtn/index.ts ***!
  \**********************************************/

/*!**********************************************!*\
  !*** ./src/components/VRadioGroup/VRadio.ts ***!
  \**********************************************/

/*!**********************************************!*\
  !*** ./src/components/VRangeSlider/index.ts ***!
  \**********************************************/

/*!**********************************************!*\
  !*** ./src/services/goto/easing-patterns.ts ***!
  \**********************************************/

/*!**********************************************!*\
  !*** ./src/services/icons/presets/fa-svg.ts ***!
  \**********************************************/

/*!***********************************************!*\
  !*** ./src/components/VAutocomplete/index.ts ***!
  \***********************************************/

/*!***********************************************!*\
  !*** ./src/components/VCalendar/VCalendar.ts ***!
  \***********************************************/

/*!***********************************************!*\
  !*** ./src/components/VCarousel/VCarousel.ts ***!
  \***********************************************/

/*!***********************************************!*\
  !*** ./src/components/VCheckbox/VCheckbox.ts ***!
  \***********************************************/

/*!***********************************************!*\
  !*** ./src/components/VCombobox/VCombobox.ts ***!
  \***********************************************/

/*!***********************************************!*\
  !*** ./src/components/VCounter/VCounter.sass ***!
  \***********************************************/

/*!***********************************************!*\
  !*** ./src/components/VDataIterator/index.ts ***!
  \***********************************************/

/*!***********************************************!*\
  !*** ./src/components/VDataTable/RowGroup.ts ***!
  \***********************************************/

/*!***********************************************!*\
  !*** ./src/components/VDivider/VDivider.sass ***!
  \***********************************************/

/*!***********************************************!*\
  !*** ./src/components/VList/VListItemIcon.ts ***!
  \***********************************************/

/*!***********************************************!*\
  !*** ./src/components/VMessages/VMessages.ts ***!
  \***********************************************/

/*!***********************************************!*\
  !*** ./src/components/VOverlay/VOverlay.sass ***!
  \***********************************************/

/*!***********************************************!*\
  !*** ./src/components/VParallax/VParallax.ts ***!
  \***********************************************/

/*!***********************************************!*\
  !*** ./src/components/VSelect/VSelectList.ts ***!
  \***********************************************/

/*!***********************************************!*\
  !*** ./src/components/VSnackbar/VSnackbar.ts ***!
  \***********************************************/

/*!***********************************************!*\
  !*** ./src/components/VStepper/VStepper.sass ***!
  \***********************************************/

/*!***********************************************!*\
  !*** ./src/components/VTextarea/VTextarea.ts ***!
  \***********************************************/

/*!***********************************************!*\
  !*** ./src/components/VTimeline/VTimeline.ts ***!
  \***********************************************/

/*!***********************************************!*\
  !*** ./src/components/VToolbar/VToolbar.sass ***!
  \***********************************************/

/*!***********************************************!*\
  !*** ./src/components/VTooltip/VTooltip.sass ***!
  \***********************************************/

/*!***********************************************!*\
  !*** ./src/components/VTreeview/VTreeview.ts ***!
  \***********************************************/

/*!***********************************************!*\
  !*** ./src/components/VWindow/VWindowItem.ts ***!
  \***********************************************/

/*!***********************************************!*\
  !*** ./src/directives/click-outside/index.ts ***!
  \***********************************************/

/*!***********************************************!*\
  !*** ./src/services/icons/presets/mdi-svg.ts ***!
  \***********************************************/

/*!************************************************!*\
  !*** ./src/components/VAppBar/VAppBarTitle.ts ***!
  \************************************************/

/*!************************************************!*\
  !*** ./src/components/VCalendar/util/props.ts ***!
  \************************************************/

/*!************************************************!*\
  !*** ./src/components/VDataTable/MobileRow.ts ***!
  \************************************************/

/*!************************************************!*\
  !*** ./src/components/VDatePicker/util/pad.ts ***!
  \************************************************/

/*!************************************************!*\
  !*** ./src/components/VList/VListItemGroup.ts ***!
  \************************************************/

/*!************************************************!*\
  !*** ./src/components/VRadioGroup/VRadio.sass ***!
  \************************************************/

/*!************************************************!*\
  !*** ./src/components/VThemeProvider/index.ts ***!
  \************************************************/

/*!************************************************!*\
  !*** ./src/components/VVirtualScroll/index.ts ***!
  \************************************************/

/*!*************************************************!*\
  !*** ./src/components/VBtnToggle/VBtnToggle.ts ***!
  \*************************************************/

/*!*************************************************!*\
  !*** ./src/components/VCalendar/modes/index.ts ***!
  \*************************************************/

/*!*************************************************!*\
  !*** ./src/components/VCalendar/modes/stack.ts ***!
  \*************************************************/

/*!*************************************************!*\
  !*** ./src/components/VCalendar/util/events.ts ***!
  \*************************************************/

/*!*************************************************!*\
  !*** ./src/components/VCalendar/util/parser.ts ***!
  \*************************************************/

/*!*************************************************!*\
  !*** ./src/components/VCarousel/VCarousel.sass ***!
  \*************************************************/

/*!*************************************************!*\
  !*** ./src/components/VCheckbox/VCheckbox.sass ***!
  \*************************************************/

/*!*************************************************!*\
  !*** ./src/components/VChipGroup/VChipGroup.ts ***!
  \*************************************************/

/*!*************************************************!*\
  !*** ./src/components/VDataTable/VDataTable.ts ***!
  \*************************************************/

/*!*************************************************!*\
  !*** ./src/components/VExpansionPanel/index.ts ***!
  \*************************************************/

/*!*************************************************!*\
  !*** ./src/components/VFileInput/VFileInput.ts ***!
  \*************************************************/

/*!*************************************************!*\
  !*** ./src/components/VItemGroup/VItemGroup.ts ***!
  \*************************************************/

/*!*************************************************!*\
  !*** ./src/components/VList/VListItemAction.ts ***!
  \*************************************************/

/*!*************************************************!*\
  !*** ./src/components/VList/VListItemAvatar.ts ***!
  \*************************************************/

/*!*************************************************!*\
  !*** ./src/components/VMessages/VMessages.sass ***!
  \*************************************************/

/*!*************************************************!*\
  !*** ./src/components/VParallax/VParallax.sass ***!
  \*************************************************/

/*!*************************************************!*\
  !*** ./src/components/VProgressLinear/index.ts ***!
  \*************************************************/

/*!*************************************************!*\
  !*** ./src/components/VSkeletonLoader/index.ts ***!
  \*************************************************/

/*!*************************************************!*\
  !*** ./src/components/VSnackbar/VSnackbar.sass ***!
  \*************************************************/

/*!*************************************************!*\
  !*** ./src/components/VSparkline/VSparkline.ts ***!
  \*************************************************/

/*!*************************************************!*\
  !*** ./src/components/VSpeedDial/VSpeedDial.ts ***!
  \*************************************************/

/*!*************************************************!*\
  !*** ./src/components/VStepper/VStepperStep.ts ***!
  \*************************************************/

/*!*************************************************!*\
  !*** ./src/components/VSubheader/VSubheader.ts ***!
  \*************************************************/

/*!*************************************************!*\
  !*** ./src/components/VSystemBar/VSystemBar.ts ***!
  \*************************************************/

/*!*************************************************!*\
  !*** ./src/components/VTextField/VTextField.ts ***!
  \*************************************************/

/*!*************************************************!*\
  !*** ./src/components/VTextarea/VTextarea.sass ***!
  \*************************************************/

/*!*************************************************!*\
  !*** ./src/components/VTimeline/VTimeline.sass ***!
  \*************************************************/

/*!*************************************************!*\
  !*** ./src/components/VTreeview/VTreeview.sass ***!
  \*************************************************/

/*!**************************************************!*\
  !*** ./src/components/VAppBar/VAppBarNavIcon.ts ***!
  \**************************************************/

/*!**************************************************!*\
  !*** ./src/components/VCalendar/mixins/mouse.ts ***!
  \**************************************************/

/*!**************************************************!*\
  !*** ./src/components/VCalendar/mixins/times.ts ***!
  \**************************************************/

/*!**************************************************!*\
  !*** ./src/components/VCalendar/modes/column.ts ***!
  \**************************************************/

/*!**************************************************!*\
  !*** ./src/components/VCalendar/modes/common.ts ***!
  \**************************************************/

/*!**************************************************!*\
  !*** ./src/components/VDataTable/VEditDialog.ts ***!
  \**************************************************/

/*!**************************************************!*\
  !*** ./src/components/VDatePicker/util/index.ts ***!
  \**************************************************/

/*!**************************************************!*\
  !*** ./src/components/VList/VListItemGroup.sass ***!
  \**************************************************/

/*!**************************************************!*\
  !*** ./src/components/VSlideGroup/VSlideItem.ts ***!
  \**************************************************/

/*!***************************************************!*\
  !*** ./src/components/VBottomNavigation/index.ts ***!
  \***************************************************/

/*!***************************************************!*\
  !*** ./src/components/VBtnToggle/VBtnToggle.sass ***!
  \***************************************************/

/*!***************************************************!*\
  !*** ./src/components/VCarousel/VCarouselItem.ts ***!
  \***************************************************/

/*!***************************************************!*\
  !*** ./src/components/VChipGroup/VChipGroup.sass ***!
  \***************************************************/

/*!***************************************************!*\
  !*** ./src/components/VColorPicker/util/index.ts ***!
  \***************************************************/

/*!***************************************************!*\
  !*** ./src/components/VDataTable/VDataTable.sass ***!
  \***************************************************/

/*!***************************************************!*\
  !*** ./src/components/VDataTable/VSimpleTable.ts ***!
  \***************************************************/

/*!***************************************************!*\
  !*** ./src/components/VDatePicker/VDatePicker.ts ***!
  \***************************************************/

/*!***************************************************!*\
  !*** ./src/components/VFileInput/VFileInput.sass ***!
  \***************************************************/

/*!***************************************************!*\
  !*** ./src/components/VItemGroup/VItemGroup.sass ***!
  \***************************************************/

/*!***************************************************!*\
  !*** ./src/components/VNavigationDrawer/index.ts ***!
  \***************************************************/

/*!***************************************************!*\
  !*** ./src/components/VPagination/VPagination.ts ***!
  \***************************************************/

/*!***************************************************!*\
  !*** ./src/components/VProgressCircular/index.ts ***!
  \***************************************************/

/*!***************************************************!*\
  !*** ./src/components/VRadioGroup/VRadioGroup.ts ***!
  \***************************************************/

/*!***************************************************!*\
  !*** ./src/components/VResponsive/VResponsive.ts ***!
  \***************************************************/

/*!***************************************************!*\
  !*** ./src/components/VSlideGroup/VSlideGroup.ts ***!
  \***************************************************/

/*!***************************************************!*\
  !*** ./src/components/VSparkline/helpers/core.ts ***!
  \***************************************************/

/*!***************************************************!*\
  !*** ./src/components/VSparkline/helpers/math.ts ***!
  \***************************************************/

/*!***************************************************!*\
  !*** ./src/components/VSparkline/helpers/path.ts ***!
  \***************************************************/

/*!***************************************************!*\
  !*** ./src/components/VSpeedDial/VSpeedDial.sass ***!
  \***************************************************/

/*!***************************************************!*\
  !*** ./src/components/VSubheader/VSubheader.sass ***!
  \***************************************************/

/*!***************************************************!*\
  !*** ./src/components/VSystemBar/VSystemBar.sass ***!
  \***************************************************/

/*!***************************************************!*\
  !*** ./src/components/VTextField/VTextField.sass ***!
  \***************************************************/

/*!***************************************************!*\
  !*** ./src/components/VTimePicker/VTimePicker.ts ***!
  \***************************************************/

/*!***************************************************!*\
  !*** ./src/components/VTimeline/VTimelineItem.ts ***!
  \***************************************************/

/*!***************************************************!*\
  !*** ./src/components/VTreeview/VTreeviewNode.ts ***!
  \***************************************************/

/*!****************************************************!*\
  !*** ./src/components/VCalendar/VCalendarDaily.ts ***!
  \****************************************************/

/*!****************************************************!*\
  !*** ./src/components/VCalendar/util/timestamp.ts ***!
  \****************************************************/

/*!****************************************************!*\
  !*** ./src/components/VDataTable/VEditDialog.sass ***!
  \****************************************************/

/*!****************************************************!*\
  !*** ./src/components/VDataTable/VVirtualTable.ts ***!
  \****************************************************/

/*!****************************************************!*\
  !*** ./src/components/VDataTable/mixins/header.ts ***!
  \****************************************************/

/*!****************************************************!*\
  !*** ./src/components/VStepper/VStepperContent.ts ***!
  \****************************************************/

/*!*****************************************************!*\
  !*** ./src/components/VBottomSheet/VBottomSheet.ts ***!
  \*****************************************************/

/*!*****************************************************!*\
  !*** ./src/components/VBreadcrumbs/VBreadcrumbs.ts ***!
  \*****************************************************/

/*!*****************************************************!*\
  !*** ./src/components/VCalendar/VCalendarWeekly.ts ***!
  \*****************************************************/

/*!*****************************************************!*\
  !*** ./src/components/VCheckbox/VSimpleCheckbox.ts ***!
  \*****************************************************/

/*!*****************************************************!*\
  !*** ./src/components/VColorPicker/VColorPicker.ts ***!
  \*****************************************************/

/*!*****************************************************!*\
  !*** ./src/components/VDataIterator/VDataFooter.ts ***!
  \*****************************************************/

/*!*****************************************************!*\
  !*** ./src/components/VDataTable/VSimpleTable.sass ***!
  \*****************************************************/

/*!*****************************************************!*\
  !*** ./src/components/VOverflowBtn/VOverflowBtn.ts ***!
  \*****************************************************/

/*!*****************************************************!*\
  !*** ./src/components/VPagination/VPagination.sass ***!
  \*****************************************************/

/*!*****************************************************!*\
  !*** ./src/components/VRadioGroup/VRadioGroup.sass ***!
  \*****************************************************/

/*!*****************************************************!*\
  !*** ./src/components/VRangeSlider/VRangeSlider.ts ***!
  \*****************************************************/

/*!*****************************************************!*\
  !*** ./src/components/VResponsive/VResponsive.sass ***!
  \*****************************************************/

/*!*****************************************************!*\
  !*** ./src/components/VSlideGroup/VSlideGroup.sass ***!
  \*****************************************************/

/*!******************************************************!*\
  !*** ./src/components/VCalendar/VCalendarDaily.sass ***!
  \******************************************************/

/*!******************************************************!*\
  !*** ./src/components/VCalendar/VCalendarMonthly.ts ***!
  \******************************************************/

/*!******************************************************!*\
  !*** ./src/components/VDataTable/VVirtualTable.sass ***!
  \******************************************************/

/*!******************************************************!*\
  !*** ./src/components/VTimePicker/SelectingTimes.ts ***!
  \******************************************************/

/*!*******************************************************!*\
  !*** ./src/components/VAutocomplete/VAutocomplete.ts ***!
  \*******************************************************/

/*!*******************************************************!*\
  !*** ./src/components/VBottomSheet/VBottomSheet.sass ***!
  \*******************************************************/

/*!*******************************************************!*\
  !*** ./src/components/VBreadcrumbs/VBreadcrumbs.sass ***!
  \*******************************************************/

/*!*******************************************************!*\
  !*** ./src/components/VCalendar/VCalendarCategory.ts ***!
  \*******************************************************/

/*!*******************************************************!*\
  !*** ./src/components/VCalendar/VCalendarWeekly.sass ***!
  \*******************************************************/

/*!*******************************************************!*\
  !*** ./src/components/VCheckbox/VSimpleCheckbox.sass ***!
  \*******************************************************/

/*!*******************************************************!*\
  !*** ./src/components/VColorPicker/VColorPicker.sass ***!
  \*******************************************************/

/*!*******************************************************!*\
  !*** ./src/components/VDataIterator/VDataFooter.sass ***!
  \*******************************************************/

/*!*******************************************************!*\
  !*** ./src/components/VDataIterator/VDataIterator.ts ***!
  \*******************************************************/

/*!*******************************************************!*\
  !*** ./src/components/VDataTable/VDataTableHeader.ts ***!
  \*******************************************************/

/*!*******************************************************!*\
  !*** ./src/components/VOverflowBtn/VOverflowBtn.sass ***!
  \*******************************************************/

/*!*******************************************************!*\
  !*** ./src/components/VRangeSlider/VRangeSlider.sass ***!
  \*******************************************************/

/*!********************************************************!*\
  !*** ./src/components/VDatePicker/VDatePickerTitle.ts ***!
  \********************************************************/

/*!********************************************************!*\
  !*** ./src/components/VDatePicker/VDatePickerYears.ts ***!
  \********************************************************/

/*!********************************************************!*\
  !*** ./src/components/VDatePicker/util/monthChange.ts ***!
  \********************************************************/

/*!********************************************************!*\
  !*** ./src/components/VTimePicker/VTimePickerClock.ts ***!
  \********************************************************/

/*!********************************************************!*\
  !*** ./src/components/VTimePicker/VTimePickerTitle.ts ***!
  \********************************************************/

/*!********************************************************!*\
  !*** ./src/components/transitions/createTransition.ts ***!
  \********************************************************/

/*!********************************************************!*\
  !*** ./src/styles/components/_selection-controls.sass ***!
  \********************************************************/

/*!*********************************************************!*\
  !*** ./src/components/VAutocomplete/VAutocomplete.sass ***!
  \*********************************************************/

/*!*********************************************************!*\
  !*** ./src/components/VBreadcrumbs/VBreadcrumbsItem.ts ***!
  \*********************************************************/

/*!*********************************************************!*\
  !*** ./src/components/VCalendar/VCalendarCategory.sass ***!
  \*********************************************************/

/*!*********************************************************!*\
  !*** ./src/components/VColorPicker/VColorPickerEdit.ts ***!
  \*********************************************************/

/*!*********************************************************!*\
  !*** ./src/components/VDataTable/VDataTableHeader.sass ***!
  \*********************************************************/

/*!*********************************************************!*\
  !*** ./src/components/VDatePicker/VDatePickerHeader.ts ***!
  \*********************************************************/

/*!*********************************************************!*\
  !*** ./src/components/VDatePicker/util/eventHelpers.ts ***!
  \*********************************************************/

/*!*********************************************************!*\
  !*** ./src/components/VThemeProvider/VThemeProvider.ts ***!
  \*********************************************************/

/*!*********************************************************!*\
  !*** ./src/components/VVirtualScroll/VVirtualScroll.ts ***!
  \*********************************************************/

/*!*********************************************************!*\
  !*** ./src/components/transitions/expand-transition.ts ***!
  \*********************************************************/

/*!**********************************************************!*\
  !*** ./src/components/VCalendar/mixins/calendar-base.ts ***!
  \**********************************************************/

/*!**********************************************************!*\
  !*** ./src/components/VDatePicker/VDatePickerTable.sass ***!
  \**********************************************************/

/*!**********************************************************!*\
  !*** ./src/components/VDatePicker/VDatePickerTitle.sass ***!
  \**********************************************************/

/*!**********************************************************!*\
  !*** ./src/components/VDatePicker/VDatePickerYears.sass ***!
  \**********************************************************/

/*!**********************************************************!*\
  !*** ./src/components/VDatePicker/util/isDateAllowed.ts ***!
  \**********************************************************/

/*!**********************************************************!*\
  !*** ./src/components/VTimePicker/VTimePickerClock.sass ***!
  \**********************************************************/

/*!**********************************************************!*\
  !*** ./src/components/VTimePicker/VTimePickerTitle.sass ***!
  \**********************************************************/

/*!**********************************************************!*\
  !*** ./src/components/VTreeview/util/filterTreeItems.ts ***!
  \**********************************************************/

/*!***********************************************************!*\
  !*** ./src/components/VColorPicker/VColorPickerCanvas.ts ***!
  \***********************************************************/

/*!***********************************************************!*\
  !*** ./src/components/VColorPicker/VColorPickerEdit.sass ***!
  \***********************************************************/

/*!***********************************************************!*\
  !*** ./src/components/VDatePicker/VDatePickerHeader.sass ***!
  \***********************************************************/

/*!***********************************************************!*\
  !*** ./src/components/VExpansionPanel/VExpansionPanel.ts ***!
  \***********************************************************/

/*!***********************************************************!*\
  !*** ./src/components/VProgressLinear/VProgressLinear.ts ***!
  \***********************************************************/

/*!***********************************************************!*\
  !*** ./src/components/VSkeletonLoader/VSkeletonLoader.ts ***!
  \***********************************************************/

/*!***********************************************************!*\
  !*** ./src/components/VVirtualScroll/VVirtualScroll.sass ***!
  \***********************************************************/

/*!************************************************************!*\
  !*** ./src/components/VBreadcrumbs/VBreadcrumbsDivider.ts ***!
  \************************************************************/

/*!************************************************************!*\
  !*** ./src/components/VColorPicker/VColorPickerPreview.ts ***!
  \************************************************************/

/*!************************************************************!*\
  !*** ./src/components/VDatePicker/VDatePickerDateTable.ts ***!
  \************************************************************/

/*!************************************************************!*\
  !*** ./src/components/VExpansionPanel/VExpansionPanels.ts ***!
  \************************************************************/

/*!*************************************************************!*\
  !*** ./src/components/VColorPicker/VColorPickerCanvas.sass ***!
  \*************************************************************/

/*!*************************************************************!*\
  !*** ./src/components/VColorPicker/VColorPickerSwatches.ts ***!
  \*************************************************************/

/*!*************************************************************!*\
  !*** ./src/components/VDataTable/VDataTableHeaderMobile.ts ***!
  \*************************************************************/

/*!*************************************************************!*\
  !*** ./src/components/VDatePicker/VDatePickerMonthTable.ts ***!
  \*************************************************************/

/*!*************************************************************!*\
  !*** ./src/components/VExpansionPanel/VExpansionPanel.sass ***!
  \*************************************************************/

/*!*************************************************************!*\
  !*** ./src/components/VProgressLinear/VProgressLinear.sass ***!
  \*************************************************************/

/*!*************************************************************!*\
  !*** ./src/components/VSkeletonLoader/VSkeletonLoader.sass ***!
  \*************************************************************/

/*!**************************************************************!*\
  !*** ./src/components/VColorPicker/VColorPickerPreview.sass ***!
  \**************************************************************/

/*!**************************************************************!*\
  !*** ./src/components/VDataTable/VDataTableHeaderDesktop.ts ***!
  \**************************************************************/

/*!***************************************************************!*\
  !*** ./src/components/VBottomNavigation/VBottomNavigation.ts ***!
  \***************************************************************/

/*!***************************************************************!*\
  !*** ./src/components/VColorPicker/VColorPickerSwatches.sass ***!
  \***************************************************************/

/*!***************************************************************!*\
  !*** ./src/components/VDatePicker/util/sanitizeDateString.ts ***!
  \***************************************************************/

/*!***************************************************************!*\
  !*** ./src/components/VNavigationDrawer/VNavigationDrawer.ts ***!
  \***************************************************************/

/*!***************************************************************!*\
  !*** ./src/components/VProgressCircular/VProgressCircular.ts ***!
  \***************************************************************/

/*!****************************************************************!*\
  !*** ./src/components/VDatePicker/mixins/date-picker-table.ts ***!
  \****************************************************************/

/*!*****************************************************************!*\
  !*** ./src/components/VBottomNavigation/VBottomNavigation.sass ***!
  \*****************************************************************/

/*!*****************************************************************!*\
  !*** ./src/components/VCalendar/mixins/calendar-with-events.ts ***!
  \*****************************************************************/

/*!*****************************************************************!*\
  !*** ./src/components/VExpansionPanel/VExpansionPanelHeader.ts ***!
  \*****************************************************************/

/*!*****************************************************************!*\
  !*** ./src/components/VNavigationDrawer/VNavigationDrawer.sass ***!
  \*****************************************************************/

/*!*****************************************************************!*\
  !*** ./src/components/VProgressCircular/VProgressCircular.sass ***!
  \*****************************************************************/

/*!******************************************************************!*\
  !*** ./src/components/VExpansionPanel/VExpansionPanelContent.ts ***!
  \******************************************************************/

/*!*******************************************************************!*\
  !*** ./src/components/VCalendar/mixins/calendar-with-events.sass ***!
  \*******************************************************************/

/*!********************************************************************!*\
  !*** ./src/components/VCalendar/mixins/calendar-with-intervals.ts ***!
  \********************************************************************/

/*!************************************************************************!*\
  !*** ./src/components/VDatePicker/util/createNativeLocaleFormatter.ts ***!
  \************************************************************************/

/*!******************************************************************************!*\
  !*** external {"commonjs":"vue","commonjs2":"vue","amd":"vue","root":"Vue"} ***!
  \******************************************************************************/
